[
  {
    "id": "1",
    "name": "Mohamed Ragab saaad"
  },
  {
    "id": "1",
    "name": "Mohamed Farag"
  },
  {
    "id": "1",
    "name": "Mohamed Fawzy"
  },
  {
    "id": "1",
    "name": "Fady Kamil"
  },
  {
    "id": "1",
    "name": "Mohamed"
  },
  {
    "id": "1",
    "name": "Mohamed"
  },
  {
    "id": "1",
    "name": "MohamedRagab"
  },
  {
    "id": "1",
    "name": "Mohamed Farag"
  },
  {
    "id": "1",
    "name": "Mohamed Fawzy"
  },
  {
    "id": "1",
    "name": "Fady Kamil"
  },
  {
    "id": "1",
    "name": "Mohamed"
  },
  {
    "id": "1",
    "name": "Mohamed"
  }
]
