[
  {
    "contractNumber": "fbv25411",
    "customerName": "Mohamed",
    "orderNumber": "enam874100",
    "orderType": "type1",
    "orderPriority": "priority1",
    "price": 1500,
    "fk_orderType_id": 1,
    "fk_orderPriority_id": 1,
    "startDate": "2017-09-28T22:48:49.0765292",
    "endDate": "2017-09-28T22:48:49.0765292"
  },
  {
    "contractNumber": "fbv25411",
    "orderNumber": "enam874100",
    "customerName": "Mohamed",
    "orderType": "type1",
    "orderPriority": "priority1",
    "price": 1500,
    "fk_orderType_id": 1,
    "fk_orderPriority_id": 1,
    "startDate": "2017-09-28T22:48:49.0765292",
    "endDate": "2017-09-28T22:48:49.0765292",
    "note": "asdasdaaaaaaaaaaaaaa"
  },
  {
    "contractNumber": "fbv25411",
    "customerName": "Mohamed",
    "orderNumber": "enam874100",
    "orderType": "type1",
    "orderPriority": "priority1",
    "price": 1500,
    "fk_orderPriority_id": 1,
    "fk_priority_id": 1,
    "startDate": "2017-09-28T22:48:49.0765292",
    "endDate": "2017-09-28T22:48:49.0765292"
  },
  {
    "contractNumber": "fbv25411",
    "customerName": "Mohamed",
    "orderNumber": "enam874100",
    "orderType": "type1",
    "orderPriority": "priority1",
    "price": 1500,
    "fk_orderType_id": 1,
    "fk_orderPriority_id": 1,
    "startDate": "2017-09-28T22:48:49.0765292",
    "endDate": "2017-09-28T22:48:49.0765292"
  }
]
