[
  {
    "id": "1",
    "name": "hussien Ragab"
  },
  {
    "id": "1",
    "name": "hussien Ragab"
  },
  {
    "id": "1",
    "name": "hussien Ragab"
  },
  {
    "id": "1",
    "name": "hussien Mohamed"
  },
  {
    "id": "1",
    "name": "hussien Mohamed"
  },
  {
    "id": "1",
    "name": "hussien Mohamed"
  },
  {
    "id": "1",
    "name": "hussien Mohamed"
  },
  {
    "id": "1",
    "name": "hussien Mohamed"
  },
  {
    "id": "1",
    "name": "hussien Mohamed"
  },
  {
    "id": "1",
    "name": "hussien Mohamed"
  },
  {
    "id": "1",
    "name": "hussien Mohamed"
  },
  {
    "id": "1",
    "name": "hussien"
  },
  {
    "id": "1",
    "name": "hussien"
  },
  {
    "id": "1",
    "name": "hussien"
  },
  {
    "id": "1",
    "name": "hussien"
  },
  {
    "id": "1",
    "name": "hussien"
  },
  {
    "id": "1",
    "name": "hussien"
  },
  {
    "id": "1",
    "name": "hussien"
  },
  {
    "id": "1",
    "name": "hussien"
  },
  {
    "id": "1",
    "name": "hussien"
  }
]
